…
```r
library(dplyr, warn.conflicts = FALSE)
library(ggplot2)

# Preview sorted by brain/body ratio. I chose this sorting so that humans would
# show up in the preview.
msleep %>% 
  select(name, sleep_total, brainwt, bodywt, everything()) %>% 
  arrange(desc(brainwt / bodywt))
#> # A tibble: 83 × 11
#>                              name sleep_total brainwt bodywt        genus
#>                             <chr>       <dbl>   <dbl>  <dbl>        <chr>
#> 1  Thirteen-lined ground squirrel        13.8 0.00400  0.101 Spermophilus
#> 2                      Owl monkey        17.0 0.01550  0.480        Aotus
#> 3       Lesser short-tailed shrew         9.1 0.00014  0.005    Cryptotis
#> 4                 Squirrel monkey         9.6 0.02000  0.743      Saimiri
#> 5                         Macaque        10.1 0.17900  6.800       Macaca
#> 6                Little brown bat        19.9 0.00025  0.010       Myotis
#> 7                          Galago         9.8 0.00500  0.200       Galago
#> 8                        Mole rat        10.6 0.00300  0.122       Spalax
#> 9                      Tree shrew         8.9 0.00250  0.104       Tupaia
#> 10                          Human         8.0 1.32000 62.000         Homo
#> # ... with 73 more rows, and 6 more variables: vore <chr>, order <chr>,
#> #   conservation <chr>, sleep_rem <dbl>, sleep_cycle <dbl>, awake <dbl>
…
One way to visualize our model therefore is to **plot our point-estimate line
plus a sample of the other credible lines from our model**. First, we create a 
data-frame with all 4,000 regression lines.


```r
# Coercing a model to a data-frame returns data-frame of posterior samples. 
# One row per sample.
fits <- m1 %>% 
  as_data_frame %>% 
  rename(intercept = `(Intercept)`) %>% 
  select(-sigma)
fits
#> # A tibble: 4,000 × 2
#>    intercept log_brainwt
#>        <dbl>       <dbl>
#> 1  0.7378144 -0.13516523
#> 2  0.8177494 -0.09003485
#> 3  0.8074633 -0.09440248
#> 4  0.8545143 -0.11018825
#> 5  0.8061616 -0.10772447
#> 6  0.8422515 -0.09022916
#> 7  0.7968577 -0.11273502
#> 8  0.7679546 -0.12267055
#> 9  0.7370562 -0.12933438
#> 10 0.7192707 -0.12798695
#> # ... with 3,990 more rows
```
…
Another option is a direct port of the `stat_smooth()` plot: Draw a line of
best fit and the 95% uncertainty interval around it.

To limit the amount of the _x_ axis used by the lines, we're going to create a 
sequence of 80 points along the range of the data. 


```r
x_rng <- range(msleep$log_brainwt) 
x_steps <- seq(x_rng[1], x_rng[2], length.out = 80)
new_data <- data_frame(
  observation = seq_along(x_steps), 
  log_brainwt = x_steps)
new_data
#> # A tibble: 80 × 2
#>    observation log_brainwt
#>          <int>       <dbl>
#> 1            1   -3.853872
#> 2            2   -3.795509
#> 3            3   -3.737146
#> 4            4   -3.678784
#> 5            5   -3.620421
#> 6            6   -3.562058
#> 7            7   -3.503695
#> 8            8   -3.445332
#> 9            9   -3.386970
#> 10          10   -3.328607
#> # ... with 70 more rows
```
…
  # Helps with joining later
  class(df_pred[[obs_name]]) <- class(df_data[[obs_name]])
  
  # Summarise prediction interval for each observation
  df_pred %>% 
    group_by_(obs_name) %>% 
    summarise(median = median(fitted),
              lower = quantile(fitted, prob_lwr), 
              upper = quantile(fitted, prob_upr)) %>% 
    left_join(df_data, by = obs_name)
}

df_pred_lin <- tidy_predictions(pred_lin, new_data)
df_pred_lin
#> # A tibble: 80 × 5
#>    observation   median    lower    upper log_brainwt
#>          <int>    <dbl>    <dbl>    <dbl>       <dbl>
#> 1            1 1.221808 1.130714 1.314318   -3.853872
#> 2            2 1.214417 1.125008 1.305139   -3.795509
#> 3            3 1.206990 1.119488 1.296013   -3.737146
#> 4            4 1.199741 1.114178 1.286591   -3.678784
#> 5            5 1.192367 1.108308 1.277354   -3.620421
#> 6            6 1.184998 1.103334 1.267785   -3.562058
#> 7            7 1.177831 1.097672 1.258505   -3.503695
#> 8            8 1.170491 1.092854 1.249195   -3.445332
#> 9            9 1.163016 1.086950 1.240197   -3.386970
#> 10          10 1.155859 1.081630 1.231081   -3.328607
#> # ... with 70 more rows
```
…
Here, we can use the function we defined earlier to get prediction intervals.


```r
# Still a matrix with one row per posterior draw and one column per observation
pred_post <- posterior_predict(m1, newdata = new_data)
dim(pred_post)
#> [1] 4000   80

df_pred_post <- tidy_predictions(pred_post, new_data)
df_pred_post
#> # A tibble: 80 × 5
#>    observation   median     lower    upper log_brainwt
#>          <int>    <dbl>     <dbl>    <dbl>       <dbl>
#> 1            1 1.222472 0.8646270 1.587308   -3.853872
#> 2            2 1.216009 0.8693197 1.559538   -3.795509
#> 3            3 1.207915 0.8509499 1.565226   -3.737146
#> 4            4 1.205512 0.8388800 1.566543   -3.678784
#> 5            5 1.199273 0.8318168 1.552506   -3.620421
#> 6            6 1.186385 0.8245860 1.535794   -3.562058
#> 7            7 1.181573 0.8333821 1.544027   -3.503695
#> 8            8 1.176840 0.8200045 1.517013   -3.445332
#> 9            9 1.167701 0.7943410 1.508184   -3.386970
#> 10          10 1.152479 0.8002372 1.516674   -3.328607
#> # ... with 70 more rows
```
…
