…
reduced_dataset <- anti_join(dataset, ids_to_exclude)
```


## Converting things into tibbles

`as_tibble()` will convert dataframes, matrices, and some other types into
tibbles.


```r
as_tibble(mtcars)
#> # A tibble: 32 x 11
#>      mpg   cyl  disp    hp  drat    wt  qsec    vs    am  gear  carb
#>    <dbl> <dbl> <dbl> <dbl> <dbl> <dbl> <dbl> <dbl> <dbl> <dbl> <dbl>
#>  1  21       6  160    110  3.9   2.62  16.5     0     1     4     4
#>  2  21       6  160    110  3.9   2.88  17.0     0     1     4     4
#>  3  22.8     4  108     93  3.85  2.32  18.6     1     1     4     1
#>  4  21.4     6  258    110  3.08  3.22  19.4     1     0     3     1
#>  5  18.7     8  360    175  3.15  3.44  17.0     0     0     3     2
#>  6  18.1     6  225    105  2.76  3.46  20.2     1     0     3     1
#>  7  14.3     8  360    245  3.21  3.57  15.8     0     0     3     4
#>  8  24.4     4  147.    62  3.69  3.19  20       1     0     4     2
#>  9  22.8     4  141.    95  3.92  3.15  22.9     1     0     4     2
#> 10  19.2     6  168.   123  3.92  3.44  18.3     1     0     4     4
#> # ... with 22 more rows
```
…
## Viewing some values from each column

When we `print()` a tibble, we only see enough dataframe columns to fill the
width of the console. For example, we will not see every column in this
tibble.


```r
# Create a 200 x 26 dataframe
df <- as.data.frame(replicate(26, 1:200)) %>% 
  setNames(letters) %>% 
  as_tibble()

df
#> # A tibble: 200 x 26
#>        a     b     c     d     e     f     g     h     i     j     k     l     m
#>    <int> <int> <int> <int> <int> <int> <int> <int> <int> <int> <int> <int> <int>
#>  1     1     1     1     1     1     1     1     1     1     1     1     1     1
#>  2     2     2     2     2     2     2     2     2     2     2     2     2     2
#>  3     3     3     3     3     3     3     3     3     3     3     3     3     3
#>  4     4     4     4     4     4     4     4     4     4     4     4     4     4
#>  5     5     5     5     5     5     5     5     5     5     5     5     5     5
#>  6     6     6     6     6     6     6     6     6     6     6     6     6     6
#>  7     7     7     7     7     7     7     7     7     7     7     7     7     7
#>  8     8     8     8     8     8     8     8     8     8     8     8     8     8
#>  9     9     9     9     9     9     9     9     9     9     9     9     9     9
#> 10    10    10    10    10    10    10    10    10    10    10    10    10    10
#> # ... with 190 more rows, and 13 more variables: n <int>, o <int>, p <int>,
#> #   q <int>, r <int>, s <int>, t <int>, u <int>, v <int>, w <int>, x <int>,
#> #   y <int>, z <int>
```
…
Typically, with dplyr loaded, you would create new columns by using
`mutate()`, although I have recently started to prefer using
`add_column()` for cases like the above example, where I add a column
with a single recycled value.

## Row names and identifiers

Look at the converted `mtcars` tibble again.


```r
as_tibble(mtcars)
#> # A tibble: 32 x 11
#>      mpg   cyl  disp    hp  drat    wt  qsec    vs    am  gear  carb
#>    <dbl> <dbl> <dbl> <dbl> <dbl> <dbl> <dbl> <dbl> <dbl> <dbl> <dbl>
#>  1  21       6  160    110  3.9   2.62  16.5     0     1     4     4
#>  2  21       6  160    110  3.9   2.88  17.0     0     1     4     4
#>  3  22.8     4  108     93  3.85  2.32  18.6     1     1     4     1
#>  4  21.4     6  258    110  3.08  3.22  19.4     1     0     3     1
#>  5  18.7     8  360    175  3.15  3.44  17.0     0     0     3     2
#>  6  18.1     6  225    105  2.76  3.46  20.2     1     0     3     1
#>  7  14.3     8  360    245  3.21  3.57  15.8     0     0     3     4
#>  8  24.4     4  147.    62  3.69  3.19  20       1     0     4     2
#>  9  22.8     4  141.    95  3.92  3.15  22.9     1     0     4     2
#> 10  19.2     6  168.   123  3.92  3.44  18.3     1     0     4     4
#> # ... with 22 more rows
```

The row numbers in the converted dataframe have an asterisk `*` above them. That
means that the dataframe has row-names. Row-names are clunky and quirky; they
are just a column of data (labels) that umm 😕 we store
away from the rest of the data. 

We should move those row-names into an explicit column, and
`rownames_to_column()` does just that.


```r
mtcars %>% 
  as_tibble() %>% 
  rownames_to_column("model")
#> # A tibble: 32 x 12
#>    model   mpg   cyl  disp    hp  drat    wt  qsec    vs    am  gear  carb
#>    <chr> <dbl> <dbl> <dbl> <dbl> <dbl> <dbl> <dbl> <dbl> <dbl> <dbl> <dbl>
#>  1 1      21       6  160    110  3.9   2.62  16.5     0     1     4     4
#>  2 2      21       6  160    110  3.9   2.88  17.0     0     1     4     4
#>  3 3      22.8     4  108     93  3.85  2.32  18.6     1     1     4     1
#>  4 4      21.4     6  258    110  3.08  3.22  19.4     1     0     3     1
#>  5 5      18.7     8  360    175  3.15  3.44  17.0     0     0     3     2
#>  6 6      18.1     6  225    105  2.76  3.46  20.2     1     0     3     1
#>  7 7      14.3     8  360    245  3.21  3.57  15.8     0     0     3     4
#>  8 8      24.4     4  147.    62  3.69  3.19  20       1     0     4     2
#>  9 9      22.8     4  141.    95  3.92  3.15  22.9     1     0     4     2
#> 10 10     19.2     6  168.   123  3.92  3.44  18.3     1     0     4     4
#> # ... with 22 more rows
```

When I fit Bayesian models, I end up with a bunch of samples from a posterior 
distribution. In my data-tidying, I need to assign a ID-number to each sample. 
The function `rowid_to_column()` automates this step by creating a new column in
a dataframe with the row-numbers. In the example below, I load some MCMC samples
from the coda package and create draw IDs.


```r
library(coda)
data(line, package = "coda")
line1 <- as.matrix(line$line1) %>% 
  as_tibble()
line1
#> # A tibble: 200 x 3
#>    alpha   beta  sigma
#>    <dbl>  <dbl>  <dbl>
#>  1  7.17 -1.57  11.2  
#>  2  2.95  1.50   4.89 
#>  3  3.67  0.628  1.40 
#>  4  3.32  1.18   0.663
#>  5  3.71  0.490  1.36 
#>  6  3.58  0.207  1.04 
#>  7  2.70  0.883  1.29 
#>  8  2.96  1.09   0.459
#>  9  3.53  1.07   0.634
#> 10  2.09  1.48   0.913
#> # ... with 190 more rows

line1 %>% rowid_to_column("draw")
#> # A tibble: 200 x 4
#>     draw alpha   beta  sigma
#>    <int> <dbl>  <dbl>  <dbl>
#>  1     1  7.17 -1.57  11.2  
#>  2     2  2.95  1.50   4.89 
#>  3     3  3.67  0.628  1.40 
#>  4     4  3.32  1.18   0.663
#>  5     5  3.71  0.490  1.36 
#>  6     6  3.58  0.207  1.04 
#>  7     7  2.70  0.883  1.29 
#>  8     8  2.96  1.09   0.459
#>  9     9  3.53  1.07   0.634
#> 10    10  2.09  1.48   0.913
#> # ... with 190 more rows
```
…
