…
Here's how the data look, both in R and in a plot. 


```r
library(ggplot2)
library(dplyr)

# The data
d
#> # A tibble: 986 x 6
#>     Subj Condition     Time ToDistractor ToTarget Proportion
#>    <int> <chr>        <int>        <int>    <int>      <dbl>
#>  1     1 facilitating   200            9        9      0.5  
#>  2     1 facilitating   250            9       10      0.526
#>  3     1 facilitating   300            6       12      0.667
#>  4     1 facilitating   350            6       12      0.667
#>  5     1 facilitating   400            6       12      0.667
#>  6     1 facilitating   450            6       12      0.667
#>  7     1 facilitating   500            6       12      0.667
#>  8     1 facilitating   550            6       12      0.667
#>  9     1 facilitating   600            4       12      0.75 
#> 10     1 facilitating   650            3       15      0.833
#> # ... with 976 more rows
…
