…
nibling_edges <- create_all_giving_edges(
  niblings$Name,
  rel = "potential-gift", 
  penwidth = .5,
  color = "#CCCCCC90") %>% 
  left_join(niblings, by = c("from" = "Number")) %>% 
  rename(from_fam = Family) %>% 
  select(-Name) %>% 
  left_join(niblings, by = c("to" = "Number")) %>% 
  rename(to_fam = Family) %>% 
  select(-Name) %>% 
  select(id, from, to, rel, from_fam, to_fam, everything())
nibling_edges
#> # A tibble: 132 x 8
#>       id  from    to            rel from_fam   to_fam penwidth     color
#>    <int> <dbl> <dbl>          <chr>    <chr>    <chr>    <dbl>     <chr>
#>  1     1     1     2 potential-gift    Water    Water      0.5 #CCCCCC90
#>  2     2     1     3 potential-gift    Water Electric      0.5 #CCCCCC90
#>  3     3     1     4 potential-gift    Water    Plant      0.5 #CCCCCC90
#>  4     4     1     5 potential-gift    Water    Plant      0.5 #CCCCCC90
#>  5     5     1     6 potential-gift    Water    Plant      0.5 #CCCCCC90
#>  6     6     1     7 potential-gift    Water Fighting      0.5 #CCCCCC90
#>  7     7     1     8 potential-gift    Water Fighting      0.5 #CCCCCC90
#>  8     8     1     9 potential-gift    Water   Normal      0.5 #CCCCCC90
#>  9     9     1    10 potential-gift    Water   Normal      0.5 #CCCCCC90
#> 10    10     1    11 potential-gift    Water  Psychic      0.5 #CCCCCC90
#> # ... with 122 more rows
```
…
