…
# Convert to tibble for better printing. Convert factors to strings
sleepstudy <- sleepstudy %>% 
  as_tibble() %>% 
  mutate(Subject = as.character(Subject))

# Add two fake participants
df_sleep <- bind_rows(
  sleepstudy,
  tibble(Reaction = c(286, 288), Days = 0:1, Subject = "374"),
  tibble(Reaction = 245, Days = 0, Subject = "373"))

df_sleep
#> # A tibble: 183 x 3
#>    Reaction  Days Subject
#>       <dbl> <dbl> <chr>  
#>  1     250.     0 308    
#>  2     259.     1 308    
#>  3     251.     2 308    
#>  4     321.     3 308    
#>  5     357.     4 308    
#>  6     415.     5 308    
#>  7     382.     6 308    
#>  8     290.     7 308    
#>  9     431.     8 308    
#> 10     466.     9 308    
#> # ... with 173 more rows
```
…
center <- fixef(m)
levels <- c(.1, .3, .5, .7, .9)

# Create an ellipse dataframe for each of the levels defined 
# above and combine them
df_ellipse <- levels %>%
  purrr::map_df(~ make_ellipse(cov_mat, center, level = .x)) %>% 
  rename(Intercept = `(Intercept)`, Slope_Days = Days)

df_ellipse
#> # A tibble: 500 x 3
#>    Intercept Slope_Days level
#>        <dbl>      <dbl> <dbl>
#>  1      261.       12.4   0.1
#>  2      260.       12.6   0.1
#>  3      260.       12.7   0.1
#>  4      259.       12.8   0.1
#>  5      258.       12.8   0.1
#>  6      258.       12.9   0.1
#>  7      257.       13.0   0.1
#>  8      257.       13.0   0.1
#>  9      256.       13.1   0.1
#> 10      255.       13.1   0.1
#> # ... with 490 more rows
```
…
# Extract the effect type and subject number from each parameter name
df_long_effects$Type <- df_long_effects$Parameter %>%
  stringr::str_detect("Intercept") %>%
  ifelse(., "Intercept", "Slope_Day")

df_long_effects$Subject <- df_long_effects$Parameter %>%
  stringr::str_extract("\\d\\d\\d")

df_long_effects <- df_long_effects %>% 
  select(draw, Subject, Effect = Type, Value)

# Finally!
df_long_effects
#> # A tibble: 160,000 x 4
#>     draw Subject Effect    Value
#>    <int> <chr>   <chr>     <dbl>
#>  1     1 308     Intercept  256.
#>  2     2 308     Intercept  264.
#>  3     3 308     Intercept  251.
#>  4     4 308     Intercept  258.
#>  5     5 308     Intercept  249.
#>  6     6 308     Intercept  258.
#>  7     7 308     Intercept  243.
#>  8     8 308     Intercept  254.
#>  9     9 308     Intercept  266.
#> 10    10 308     Intercept  236.
#> # ... with 159,990 more rows
```

Now that we have the data in the right shape, we are going randomly choose 50
posterior samples and plot those lines alongside the observed data.


```r
df_samples <- df_long_effects %>%
  filter(draw %in% sample(1:4000, size = 50)) %>%
  tidyr::spread(Effect, Value)
df_samples
#> # A tibble: 1,000 x 4
#>     draw Subject Intercept Slope_Day
#>    <int> <chr>       <dbl>     <dbl>
#>  1    62 308          258.    20.9  
#>  2    62 309          246.    -4.20 
#>  3    62 310          229.     0.402
#>  4    62 330          286.     4.46 
#>  5    62 331          273.     6.60 
#>  6    62 332          275.     9.55 
#>  7    62 333          270.    10.6  
#>  8    62 334          242.    10.3  
#>  9    62 335          244.     1.95 
#> 10    62 337          282.    19.2  
#> # ... with 990 more rows
…
