…
  # Package everything together in a dataframe  
  tibble::tibble(
    n_already = rep(n_already, times = n_sims),
    simulation = seq_len(n_sims),
    n_encounters = sim_results
  )
}

results <- Map(simulate_2k, n_already = 0:25)
df_results <- bind_rows(results)
df_results
#> # A tibble: 52,000 × 3
#>    n_already simulation n_encounters
#>        <int>      <int>        <int>
#>  1         0          1          112
#>  2         0          2           69
#>  3         0          3          128
#>  4         0          4           67
#>  5         0          5          108
#>  6         0          6           67
#>  7         0          7          115
#>  8         0          8          124
#>  9         0          9           66
#> 10         0         10           88
#> # … with 51,990 more rows
```
…
