…
```r
grouped <- data %>% 
  group_by(!!! dots)
```

There is a helper function buried in dplyr called `group_indices()` which
returns the grouping index for each row in a grouped dataframe.


```r
grouped %>% 
  tibble::add_column(group_index = group_indices(grouped)) 
#> # A tibble: 6,407 x 6
#> # Groups:   name [50]
#>     year sex   name          n    prop group_index
#>    <dbl> <chr> <chr>     <int>   <dbl>       <int>
#>  1  1880 F     Mary       7065 0.0724           33
#>  2  1880 F     Anna       2604 0.0267            4
#>  3  1880 F     Emma       2003 0.0205           19
#>  4  1880 F     Elizabeth  1939 0.0199           17
#>  5  1880 F     Margaret   1578 0.0162           32
#>  6  1880 F     Sarah      1288 0.0132           45
#>  7  1880 F     Laura      1012 0.0104           29
#>  8  1880 F     Catherine   688 0.00705          11
#>  9  1880 F     Helen       636 0.00652          21
#> 10  1880 F     Frances     605 0.00620          20
#> # ... with 6,397 more rows
```

We can randomly sample five of the group indices and keep the rows for just
those groups.


```r
unique_groups <- unique(group_indices(grouped))
sampled_groups <- sample(unique_groups, size)
sampled_groups
#> [1]  4 25 43 20 21

subset_of_the_data <- data %>% 
  filter(group_indices(grouped) %in% sampled_groups)
subset_of_the_data
#> # A tibble: 674 x 5
#>     year sex   name         n      prop
#>    <dbl> <chr> <chr>    <int>     <dbl>
#>  1  1880 F     Anna      2604 0.0267   
#>  2  1880 F     Helen      636 0.00652  
#>  3  1880 F     Frances    605 0.00620  
#>  4  1880 F     Samantha    21 0.000215 
#>  5  1881 F     Anna      2698 0.0273   
#>  6  1881 F     Helen      612 0.00619  
#>  7  1881 F     Frances    586 0.00593  
#>  8  1881 F     Samantha    12 0.000121 
#>  9  1881 F     Karen        6 0.0000607
#> 10  1882 F     Anna      3143 0.0272   
#> # ... with 664 more rows
…
  data %>% 
    filter(group_ids %in% sampled_groups)
}
```

We can test that the function works as we might expect. Sampling 10 names
returns the data for 10 names.


```r
ten_names <- top_names %>% 
  sample_n_of(10, name) %>% 
  print()
#> # A tibble: 1,326 x 5
#>     year sex   name         n      prop
#>    <dbl> <chr> <chr>    <int>     <dbl>
#>  1  1880 F     Sarah     1288 0.0132   
#>  2  1880 F     Frances    605 0.00620  
#>  3  1880 F     Rachel     166 0.00170  
#>  4  1880 F     Samantha    21 0.000215 
#>  5  1880 F     Deborah     12 0.000123 
#>  6  1880 F     Shirley      8 0.0000820
#>  7  1880 F     Carol        7 0.0000717
#>  8  1880 F     Jessica      7 0.0000717
#>  9  1881 F     Sarah     1226 0.0124   
#> 10  1881 F     Frances    586 0.00593  
#> # ... with 1,316 more rows
…
Is this a problem? 

Here I think failure is okay because what do we think should happen? It's not
obvious. It should randomly choose 2 of the years for each name.
Should it be the same two years? Then this should be fine.


```r
top_names %>% 
  sample_n_of(2, year)
#> # A tibble: 100 x 5
#>     year sex   name         n    prop
#>    <dbl> <chr> <chr>    <int>   <dbl>
#>  1  1970 F     Jennifer 46160 0.0252 
#>  2  1970 F     Lisa     38965 0.0213 
#>  3  1970 F     Kimberly 34141 0.0186 
#>  4  1970 F     Michelle 34053 0.0186 
#>  5  1970 F     Amy      25212 0.0138 
#>  6  1970 F     Angela   24926 0.0136 
#>  7  1970 F     Melissa  23742 0.0130 
#>  8  1970 F     Mary     19204 0.0105 
#>  9  1970 F     Karen    16701 0.00912
#> 10  1970 F     Laura    16497 0.00901
#> # ... with 90 more rows
```

Or, should those two years be randomly selected for each name? Then, we should
let `do()` handle that. `do()` takes some code that returns a dataframe, applies
it to each group, and returns the combined result.


```r
top_names %>% 
  group_by(name) %>% 
  do(sample_n_of(., 2, year))
#> # A tibble: 100 x 5
#> # Groups:   name [50]
#>     year sex   name       n      prop
#>    <dbl> <chr> <chr>  <int>     <dbl>
#>  1  1913 F     Amanda   346 0.000528 
#>  2  1953 F     Amanda   428 0.000222 
#>  3  1899 F     Amy      281 0.00114  
#>  4  1964 F     Amy     9579 0.00489  
#>  5  1916 F     Angela   715 0.000659 
#>  6  2005 F     Angela  2893 0.00143  
#>  7  1999 F     Anna    9092 0.00467  
#>  8  2011 F     Anna    5649 0.00292  
#>  9  1952 F     Ashley    24 0.0000126
#> 10  2006 F     Ashley 12340 0.00591  
#> # ... with 90 more rows
```
…
