…
`mcmc_areas_data()` tidies the MCMC samples into a dataframe suitable for
plotting. It computes the density of the parameter values, and it returns the
densities over *three* intervals: 1) an outer interval, 2) an inner interval to
be shaded, and 3) a narrow "point" interval. 


```r
library(dplyr, warn.conflicts = FALSE)

d <- mcmc_areas_data(example_data, c("beta[1]", "beta[2]")) %>% 
  mutate(
    interval = factor(interval, c("outer", "inner", "point")))

d
#> # A tibble: 4,238 x 5
#>    parameter interval interval_width     x density
#>    <fct>     <fct>             <dbl> <dbl>   <dbl>
#>  1 beta[1]   inner             0.500 0.136   0.986
#>  2 beta[1]   inner             0.500 0.137   0.988
#>  3 beta[1]   inner             0.500 0.137   0.989
#>  4 beta[1]   inner             0.500 0.138   0.990
#>  5 beta[1]   inner             0.500 0.138   0.991
#>  6 beta[1]   inner             0.500 0.139   0.992
#>  7 beta[1]   inner             0.500 0.139   0.993
#>  8 beta[1]   inner             0.500 0.139   0.994
#>  9 beta[1]   inner             0.500 0.140   0.995
#> 10 beta[1]   inner             0.500 0.140   0.997
#> # ... with 4,228 more rows
```
…
