…
```r
grid <- tidyr::crossing(
  # columns
  tibble(x_start = x_starts, x_end = x_ends),
  # rows
  tibble(y_start = y_starts, y_end = y_ends)
) %>%
  # So values move left to right, bottom to top
  arrange(y_start, y_end)

# 400 rows because 20 rows x 20 columns
grid
#> # A tibble: 400 x 4
#>    x_start x_end y_start y_end
#>      <dbl> <dbl>   <dbl> <dbl>
#>  1    0     0.05       0  0.05
#>  2    0.05  0.1        0  0.05
#>  3    0.1   0.15       0  0.05
#>  4    0.15  0.2        0  0.05
#>  5    0.2   0.25       0  0.05
#>  6    0.25  0.3        0  0.05
#>  7    0.3   0.35       0  0.05
#>  8    0.35  0.4        0  0.05
#>  9    0.4   0.45       0  0.05
#> 10    0.45  0.5        0  0.05
#> # ... with 390 more rows
```
…
