…
# Convert to tibble for better printing. Convert factors to strings
sleepstudy <- lme4::sleepstudy %>%
  as_tibble() %>%
  mutate(Subject = as.character(Subject))

# Add two fake participants, as in the earlier partial pooling post
df_sleep <- bind_rows(
  sleepstudy,
  tibble(Reaction = c(286, 288), Days = 0:1, Subject = "374"),
  tibble(Reaction = 245, Days = 0, Subject = "373")
)

df_sleep
#> # A tibble: 183 x 3
#>    Reaction  Days Subject
#>       <dbl> <dbl> <chr>  
#>  1     250.     0 308    
#>  2     259.     1 308    
#>  3     251.     2 308    
#>  4     321.     3 308    
#>  5     357.     4 308    
#>  6     415.     5 308    
#>  7     382.     6 308    
#>  8     290.     7 308    
#>  9     431.     8 308    
#> 10     466.     9 308    
#> # ... with 173 more rows
…
Now we have 4,000 posterior samples for the fitted `Reaction` (`.epred`)
for each `Subject` for each day.


```r
df_demo_fitted
#> # A tibble: 160,000 x 7
#> # Groups:   Subject, Days, .row [40]
#>    Subject  Days  .row .chain .iteration .draw .epred
#>    <chr>   <dbl> <int>  <int>      <int> <int>  <dbl>
#>  1 333         0     1     NA         NA     1   272.
#>  2 333         0     1     NA         NA     2   264.
#>  3 333         0     1     NA         NA     3   266.
#>  4 333         0     1     NA         NA     4   286.
#>  5 333         0     1     NA         NA     5   269.
#>  6 333         0     1     NA         NA     6   270.
#>  7 333         0     1     NA         NA     7   265.
#>  8 333         0     1     NA         NA     8   283.
#>  9 333         0     1     NA         NA     9   246.
#> 10 333         0     1     NA         NA    10   269.
#> # ... with 159,990 more rows
```
…
