…
{% include figure image_path="/assets/images/2021-02-spline.png" alt="An illustration of a drafting spline." caption="A drafting spline is a flexible strip of wood that is anchored at a few points so that one can create smooth curves. Illustration by [Pearson Scott Foresman](https://commons.wikimedia.org/wiki/File:Spline_(PSF).png#file)." %}{: style="max-width: 50%; display: block; margin: 2em auto;"}

An easy way to pull the wiggles is to use the model matrix. We have 20
columns for the intercept and 19 basis functions.


```r
model.matrix(gam_20) %>% 
  as_tibble() %>% 
  print(width = 72)
#> # A tibble: 133 × 20
#>    `(Intercept)` `s(times).1` `s(times).2` `s(times).3` `s(times).4`
#>            <dbl>        <dbl>        <dbl>        <dbl>        <dbl>
#>  1             1      -0.143       -0.165      -0.154       -0.311  
#>  2             1      -0.0317      -0.193      -0.133       -0.293  
#>  3             1       0.292       -0.270      -0.0716      -0.242  
#>  4             1       0.492       -0.309      -0.0357      -0.208  
#>  5             1       0.669       -0.332      -0.00603     -0.175  
#>  6             1       0.933        0.0792     -0.0455      -0.0280 
#>  7             1       0.808        0.278      -0.0969      -0.0106 
#>  8             1       0.730        0.383      -0.122       -0.00387
#>  9             1       0.286        0.851      -0.182        0.00169
#> 10             1       0.123        0.957      -0.143       -0.0130 
#> # … with 123 more rows, and 15 more variables: `s(times).5` <dbl>,
#> #   `s(times).6` <dbl>, `s(times).7` <dbl>, `s(times).8` <dbl>,
#> #   `s(times).9` <dbl>, `s(times).10` <dbl>, `s(times).11` <dbl>,
#> #   `s(times).12` <dbl>, `s(times).13` <dbl>, `s(times).14` <dbl>,
#> #   `s(times).15` <dbl>, `s(times).16` <dbl>, `s(times).17` <dbl>,
#> #   `s(times).18` <dbl>, `s(times).19` <dbl>
```
…
