…
data <- json_any_percent |> 
  lapply(
    # turn one list into a dataframe
    function(x) { 
      tibble(
        date = x$x, 
        run_time_s = x$y, 
        player = x$players[[1]]
      )
    }
  ) |> 
  bind_rows()

data
#> # A tibble: 30 × 3
#>          date run_time_s player       
#>         <int>      <dbl> <chr>        
#>  1 1306670400       1616 RaikerZ      
#>  2 1325246400       1549 RaikerZ      
#>  3 1332763200       1531 RaikerZ      
#>  4 1349870400       1527 RaikerZ      
#>  5 1457179200       1526 GreenUprooter
#>  6 1461585600       1523 Auchgard     
#>  7 1461672000       1522 Auchgard     
#>  8 1461758400       1519 Auchgard     
#>  9 1470744000       1514 Auchgard     
#> 10 1471521600       1512 Auchgard     
#> # … with 20 more rows
```
…
```r
data <- data |> 
  mutate(
    date_posix = as.POSIXct(date, tz = "UTC", origin = "1970-01-01")
  ) 

data
#> # A tibble: 30 × 4
#>          date run_time_s player        date_posix         
#>         <int>      <dbl> <chr>         <dttm>             
#>  1 1306670400       1616 RaikerZ       2011-05-29 12:00:00
#>  2 1325246400       1549 RaikerZ       2011-12-30 12:00:00
#>  3 1332763200       1531 RaikerZ       2012-03-26 12:00:00
#>  4 1349870400       1527 RaikerZ       2012-10-10 12:00:00
#>  5 1457179200       1526 GreenUprooter 2016-03-05 12:00:00
#>  6 1461585600       1523 Auchgard      2016-04-25 12:00:00
#>  7 1461672000       1522 Auchgard      2016-04-26 12:00:00
#>  8 1461758400       1519 Auchgard      2016-04-27 12:00:00
#>  9 1470744000       1514 Auchgard      2016-08-09 12:00:00
#> 10 1471521600       1512 Auchgard      2016-08-18 12:00:00
#> # … with 20 more rows
```
…
