…
[rtg-cran]: https://cran.r-project.org/package=readtextgrid "readtextgrid on CRAN"


``` r
library(tidyverse)
library(readtextgrid)

path_tg <- "_R/data/mfa-out/library-tidyverse-library-brms.TextGrid" 
data_tg <- read_textgrid(path_tg)

data_tg
#> # A tibble: 43 × 10
#>    file       tier_num tier_name tier_type tier_xmin tier_xmax  xmin  xmax text 
#>    <chr>         <int> <chr>     <chr>         <dbl>     <dbl> <dbl> <dbl> <chr>
#>  1 library-t…        1 words     Interval…         0      3.60  0     0.08 ""   
#>  2 library-t…        1 words     Interval…         0      3.60  0.08  0.74 "lib…
#>  3 library-t…        1 words     Interval…         0      3.60  0.74  1.12 "tid…
#>  4 library-t…        1 words     Interval…         0      3.60  1.12  1.58 "ver…
#>  5 library-t…        1 words     Interval…         0      3.60  1.58  1.74 ""   
#>  6 library-t…        1 words     Interval…         0      3.60  1.74  2.46 "lib…
#>  7 library-t…        1 words     Interval…         0      3.60  2.46  2.72 "b"  
#>  8 library-t…        1 words     Interval…         0      3.60  2.72  2.9  "r"  
#>  9 library-t…        1 words     Interval…         0      3.60  2.9   3.04 "m"  
#> 10 library-t…        1 words     Interval…         0      3.60  3.04  3.46 "s"  
#> # ℹ 33 more rows
#> # ℹ 1 more variable: annotation_num <int>
```
…
