…
if (interactive()) targets::tar_prune()

data_current_target_paths <- targets::tar_meta(starts_with("note_")) |> 
  select(name, format, path) |> 
  mutate(
    path = unlist(path) |> fs::path_norm()
  )
  
data_current_target_paths
#> # A tibble: 106 × 3
#>    name                                                format path              
#>    <chr>                                               <chr>  <fs::path>        
#>  1 note_rmd_2025_01_01_sweep_demo                      file   …01-sweep-demo.Rmd
#>  2 note_rmd_2025_01_01_gams_for_assessing_nonlinearity file   …-nonlinearity.Rmd
#>  3 note_rmd_2025_01_01_log_likelihood_functions        file   …ood-functions.Rmd
#>  4 note_md_2025_01_01_gams_for_assessing_nonlinearity  file   …g-nonlinearity.md
#>  5 note_rmd_2025_01_01_random_variable_active_binding  file   …ctive-binding.Rmd
#>  6 note_md_2025_01_01_sweep_demo                       file   …-01-sweep-demo.md
#>  7 note_md_2025_01_01_log_likelihood_functions         file   …hood-functions.md
#>  8 note_md_2025_01_01_random_variable_active_binding   file   …active-binding.md
#>  9 note_rmd_2024_01_01_mfa_conda_solver_warning        file   …olver-warning.Rmd
#> 10 note_rmd_2024_01_01_nullsafe_map                    file   …-nullsafe-map.Rmd
#> # ℹ 96 more rows
…
